worker_id,external_id,judgments_count,missed_count,golds_count,forgiven_count,channel,country,region,city,last_ip,flagged_at,rejected_at,bonus,flag_reason,trust_overall,submission_rate,level_1_contributors
6585603,3402125,0,0,0,0,clixsense,,,,,,,0,,1.0,0,1.0
9232361,3433530,60,5,15,0,clixsense,BRA,"","",179.135.255.77,,,0,,0.6667,600,1.0
9954345,4331295,127,1,22,0,clixsense,IND,07,Delhi,1.23.100.19,,,0,,0.9545,847,1.0
12216479,AA35133085E8653C41A29D4352C72707,197,4,29,0,neodev,PRT,04,Esposende,144.64.59.201,,,0,,0.8621,660,1.0
12679248,4624128,10,7,10,0,clixsense,PHL,"","",112.198.75.128,,,0,,0.3,0,1.0
13031946,4662797,180,3,27,0,clixsense,IND,25,Chennai,117.231.128.122,,,0,,0.8889,635,1.0
13144852,4678053,0,0,0,0,clixsense,,,,,,,0,,1.0,0,1.0
13180246,2260847,40,4,13,0,clixsense,MEX,09,Mexico,187.206.160.181,,,0,,0.6923,600,1.0
14073714,590BE2733ABF40B841A29D4352C72707,20,1,11,0,neodev,GRC,35,Athens,85.72.45.249,,,0,,0.9091,600,1.0
19298085,2097886,0,0,0,0,clixsense,,,,,,,0,,1.0,0,1.0
21711933,FA34F2BEAB1BCFFC0DD4E15F98F7C799,0,0,0,0,neodev,,,,,,,0,,1.0,0,1.0
22057603,6049014,10,6,10,0,clixsense,GRC,13,Thessaloníki,94.68.232.105,,,0,,0.4,0,1.0
23926500,554DB4B39BDD53EE24750D543524A854,40,4,13,0,neodev,IND,16,Pune,123.201.165.196,,,0,,0.6923,600,1.0
24488377,6241435,0,0,0,0,clixsense,,,,,,,0,,1.0,0,1.0
25756390,2F414B85D984620F6964A2442E880D82,0,0,0,0,neodev,,,,,,,0,,1.0,0,1.0
25907194,6337572,190,6,28,0,clixsense,HRV,"","",31.217.114.211,,,0,,0.7857,600,1.0
28091001,29356,0,0,0,0,eup_slw,,,,,,,0,,1.0,0,1.0
28282475,13444,0,0,0,0,elite,,,,,,,0,,1.0,0,1.0
28872299,6624181,0,0,0,0,clixsense,,,,,,,0,,1.0,0,1.0
28875937,30F9E88210D759AC93CA06397A287A80,37,4,13,0,neodev,PAK,04,Lahore,119.153.171.120,,,0,,0.6923,600,1.0
29822414,EEAEA6AC2FEF5A4B6964A2442E880D82,0,0,0,0,neodev,,,,,,,0,,1.0,0,1.0
30000442,32289,0,0,0,0,elite,,,,,,,0,,1.0,0,1.0
30353892,3AA5CCDB93D59DF941A29D4352C72707,0,0,0,0,neodev,,,,,,,0,,1.0,0,1.0
30381282,6899367,0,0,0,0,clixsense,,,,,,,0,,1.0,0,1.0
30877482,7029129,10,0,10,0,clixsense,BIH,01,Sarajevo,77.78.237.146,,,0,,1.0,600,1.0
31004785,E95C01765A5CF3E96964A2442E880D82,0,0,0,0,neodev,,,,,,,0,,1.0,0,1.0
31450350,BBB56C0E07864DEF6964A2442E880D82,0,0,0,0,neodev,,,,,,,0,,1.0,0,1.0
31505865,92DC6F708862EA0F24750D543524A854,0,0,0,0,neodev,,,,,,,0,,1.0,0,1.0
31668344,0EEB5C50CE533B750FA9E28369487118,0,0,0,0,neodev,,,,,,,0,,1.0,0,1.0
31822324,7279833,0,0,0,0,clixsense,,,,,,,0,,1.0,0,1.0
32206883,7386518,0,0,0,0,clixsense,,,,,,,0,,1.0,0,1.0
32392336,E7796E2950D5554241A29D4352C72707,0,0,0,0,neodev,,,,,,,0,,1.0,0,1.0
32617668,7508916,10,1,10,0,clixsense,IND,03,Guwahati,14.139.196.2,,,0,,0.9,600,1.0
32831816,69246,10,4,10,0,elite,IND,03,Guwahati,14.139.196.2,,,0,,0.6,0,1.0
32850705,7589754,10,10,10,0,clixsense,RUS,08,Ufa,81.30.222.250,,,0,,0.0,600,1.0
32931223,5119B26E5E88D6756964A2442E880D82,0,0,0,0,neodev,,,,,,,0,,1.0,0,1.0
33256761,D993B6AE593A0E11BD9CE4BD64DFB8C1,0,0,0,0,neodev,,,,,,,0,,1.0,0,1.0
33327805,E4519EBF56E901D3DD6A67EA287D2489,34,1,13,0,neodev,PRT,14,Amadora,79.169.254.60,,,0,,0.9231,510,1.0
33425823,5A9825FB5C4667B1DD6A67EA287D2489,10,6,10,0,neodev,VEN,"","",190.75.155.174,,,0,,0.4,600,1.0
33468308,7775272,130,2,22,0,clixsense,PAK,04,Lahore,119.152.224.31,,,0,,0.9091,600,1.0
33663352,816573ad54a36ea9c2006cf9154a6d97,187,4,28,0,personaly,ARG,01,Mar Del Plata,181.168.213.227,,,0,,0.8571,863,1.0
34435848,FBB12D8F4F1BF182204CFC72B9696897,0,0,0,0,neodev,,,,,,,0,,1.0,0,1.0
34600589,8090542,0,0,0,0,clixsense,,,,,,,0,,1.0,0,1.0
34659734,8111393,0,0,0,0,clixsense,,,,,,,0,,1.0,0,1.0
35043167,8243505,0,0,0,0,clixsense,,,,,,,0,,1.0,0,1.0
35589327,8432711,40,4,13,0,clixsense,UKR,04,Dnepropetrovsk,91.221.65.7,,,0,,0.6923,600,1.0
35618913,9B74EA401AF5D25B143E2E32438F3B0E,0,0,0,0,neodev,,,,,,,0,,1.0,0,1.0
35645681,32E7FA1780441A5EC72447F05A7256A4,118,3,22,0,neodev,VNM,44,Hanoi,113.184.164.48,,,0,,0.8636,540,1.0
35717711,8480255,0,0,0,0,clixsense,,,,,,,0,,1.0,0,1.0
35910398,E39896C3826BCC9BBE2CB08758655D00,10,3,10,0,neodev,PAK,03,Peshawar,182.185.125.76,,,0,,0.7,600,1.0
35931825,D32793F531A6633DB6CD945299117BED,0,0,0,0,neodev,,,,,,,0,,1.0,0,1.0
36222760,07864f784d1179d77458fe69bedb38a4,0,0,0,0,personaly,,,,,,,0,,1.0,0,1.0
36406175,8718179,0,0,0,0,clixsense,,,,,,,0,,1.0,0,1.0
36607939,D5B0FFFD003408A8BE88392C7C4AEDF0,0,0,0,0,neodev,,,,,,,0,,1.0,0,1.0
36691508,781123FFA8D1D9F913B45070835AF903,0,0,0,0,neodev,,,,,,,0,,1.0,0,1.0
36792520,8858825,0,0,0,0,clixsense,,,,,,,0,,1.0,0,1.0
37099608,D9CE810508E4E9D03A7EF6E57C5562DE,0,0,0,0,neodev,,,,,,,0,,1.0,0,1.0
37697924,0361517CBB22AF56DC1CF3E1D84EE58C,10,7,10,0,neodev,PAK,08,Islamabad,39.51.57.24,,,0,,0.3,0,1.0
38127615,esinmutlu,0,0,0,0,instagc,,,,,,,0,,1.0,0,1.0
38149354,136932,40,0,13,0,elite,IND,23,Ludhiana,123.237.61.29,,,0,,1.0,600,1.0
38164638,137118,10,5,10,0,elite,VEN,"","",190.36.215.83,,,0,,0.5,600,1.0
