"Pattern";"Support";"Relative support";"Estimate";"SPARQL"
"(http://dbpedia.org/ontology/abstract range http://www.w3.org/1999/02/22-rdf-syntax-ns#PlainLiteral)";"0";"NaN";"0,997797";"?x <http://dbpedia.org/ontology/abstract> ?var1. filter(datatype(?var1)=<http://www.w3.org/1999/02/22-rdf-syntax-ns#PlainLiteral>) "
"(http://dbpedia.org/property/name range http://www.w3.org/1999/02/22-rdf-syntax-ns#PlainLiteral)";"0";"NaN";"0,544053";"?x <http://dbpedia.org/property/name> ?var1. filter(datatype(?var1)=<http://www.w3.org/1999/02/22-rdf-syntax-ns#PlainLiteral>) "
"(http://dbpedia.org/property/diameter range http://www.w3.org/2001/XMLSchema#decimal)";"0";"NaN";"0,511013";"?x <http://dbpedia.org/property/diameter> ?var1. filter(datatype(?var1)=<http://www.w3.org/2001/XMLSchema#decimal>) "
"(http://dbpedia.org/property/diameter >= "1.3"^^<http://dbpedia.org/datatype/kilometre>)";"0";"NaN";"0,519824";"?x <http://dbpedia.org/property/diameter> ?var1. filter(<http://dbpedia.org/datatype/kilometre>(?var1) >= "1.3"^^<http://dbpedia.org/datatype/kilometre>) "
"(http://dbpedia.org/property/diameter <= "10000.0"^^<http://dbpedia.org/datatype/kilometre>)";"0";"NaN";"0,519824";"?x <http://dbpedia.org/property/diameter> ?var1. filter(<http://dbpedia.org/datatype/kilometre>(?var1) <= "10000.0"^^<http://dbpedia.org/datatype/kilometre>) "
"(http://dbpedia.org/property/longitude >= "0"^^<http://www.w3.org/2001/XMLSchema#integer>)";"0";"NaN";"0,605727";"?x <http://dbpedia.org/property/longitude> ?var1. filter(<http://www.w3.org/2001/XMLSchema#integer>(?var1) >= "0"^^<http://www.w3.org/2001/XMLSchema#integer>) "
"(http://dbpedia.org/property/longitude <= "359.1"^^<http://www.w3.org/2001/XMLSchema#double>)";"0";"NaN";"0,605727";"?x <http://dbpedia.org/property/longitude> ?var1. filter(<http://www.w3.org/2001/XMLSchema#double>(?var1) <= "359.1"^^<http://www.w3.org/2001/XMLSchema#double>) "
"(http://dbpedia.org/property/nOrS range http://www.w3.org/1999/02/22-rdf-syntax-ns#PlainLiteral)";"0";"NaN";"0,605727";"?x <http://dbpedia.org/property/nOrS> ?var1. filter(datatype(?var1)=<http://www.w3.org/1999/02/22-rdf-syntax-ns#PlainLiteral>) "
"(http://www.w3.org/2000/01/rdf-schema#label range http://www.w3.org/1999/02/22-rdf-syntax-ns#PlainLiteral)";"0";"NaN";"0,997797";"?x <http://www.w3.org/2000/01/rdf-schema#label> ?var1. filter(datatype(?var1)=<http://www.w3.org/1999/02/22-rdf-syntax-ns#PlainLiteral>) "
"(http://dbpedia.org/property/eOrW range http://www.w3.org/1999/02/22-rdf-syntax-ns#PlainLiteral)";"0";"NaN";"0,605727";"?x <http://dbpedia.org/property/eOrW> ?var1. filter(datatype(?var1)=<http://www.w3.org/1999/02/22-rdf-syntax-ns#PlainLiteral>) "
"(http://www.w3.org/1999/02/22-rdf-syntax-ns#type http://www.w3.org/2002/07/owl#Thing)";"0";"NaN";"1,000000";"?x <http://www.w3.org/1999/02/22-rdf-syntax-ns#type> <http://www.w3.org/2002/07/owl#Thing>. "
"(http://www.w3.org/1999/02/22-rdf-syntax-ns#type http://dbpedia.org/ontology/Location)";"0";"NaN";"1,000000";"?x <http://www.w3.org/1999/02/22-rdf-syntax-ns#type> <http://dbpedia.org/ontology/Location>. "
"(http://www.w3.org/1999/02/22-rdf-syntax-ns#type http://dbpedia.org/ontology/Place)";"0";"NaN";"1,000000";"?x <http://www.w3.org/1999/02/22-rdf-syntax-ns#type> <http://dbpedia.org/ontology/Place>. "
"(http://www.w3.org/1999/02/22-rdf-syntax-ns#type http://schema.org/Place)";"0";"NaN";"1,000000";"?x <http://www.w3.org/1999/02/22-rdf-syntax-ns#type> <http://schema.org/Place>. "
"(http://www.w3.org/1999/02/22-rdf-syntax-ns#type http://dbpedia.org/ontology/Crater)";"0";"NaN";"1,000000";"?x <http://www.w3.org/1999/02/22-rdf-syntax-ns#type> <http://dbpedia.org/ontology/Crater>. "
"(http://www.w3.org/1999/02/22-rdf-syntax-ns#type http://dbpedia.org/ontology/NaturalPlace)";"0";"NaN";"1,000000";"?x <http://www.w3.org/1999/02/22-rdf-syntax-ns#type> <http://dbpedia.org/ontology/NaturalPlace>. "
"(http://www.w3.org/2000/01/rdf-schema#comment range http://www.w3.org/1999/02/22-rdf-syntax-ns#PlainLiteral)";"0";"NaN";"0,997797";"?x <http://www.w3.org/2000/01/rdf-schema#comment> ?var1. filter(datatype(?var1)=<http://www.w3.org/1999/02/22-rdf-syntax-ns#PlainLiteral>) "
"(http://dbpedia.org/property/latitude >= "0"^^<http://www.w3.org/2001/XMLSchema#integer>)";"0";"NaN";"0,605727";"?x <http://dbpedia.org/property/latitude> ?var1. filter(<http://www.w3.org/2001/XMLSchema#integer>(?var1) >= "0"^^<http://www.w3.org/2001/XMLSchema#integer>) "
"(http://dbpedia.org/property/latitude <= "86"^^<http://www.w3.org/2001/XMLSchema#integer>)";"0";"NaN";"0,605727";"?x <http://dbpedia.org/property/latitude> ?var1. filter(<http://www.w3.org/2001/XMLSchema#integer>(?var1) <= "86"^^<http://www.w3.org/2001/XMLSchema#integer>) "
"(http://xmlns.com/foaf/0.1/depiction ?)(http://purl.org/dc/elements/1.1/rights ?) AND (http://www.w3.org/1999/02/22-rdf-syntax-ns#type http://dbpedia.org/ontology/Image) AND (http://xmlns.com/foaf/0.1/thumbnail ?)";"0";"NaN";"0,713656";"?x <http://xmlns.com/foaf/0.1/depiction> ?var1. ?var1 <http://purl.org/dc/elements/1.1/rights> ?var2. ?var1 <http://www.w3.org/1999/02/22-rdf-syntax-ns#type> <http://dbpedia.org/ontology/Image>. ?var1 <http://xmlns.com/foaf/0.1/thumbnail> ?var3. "
"(http://xmlns.com/foaf/0.1/depiction ?)(http://xmlns.com/foaf/0.1/thumbnail ?)(http://purl.org/dc/elements/1.1/rights ?) AND (http://www.w3.org/1999/02/22-rdf-syntax-ns#type http://dbpedia.org/ontology/Image)";"0";"NaN";"0,713656";"?x <http://xmlns.com/foaf/0.1/depiction> ?var1. ?var1 <http://xmlns.com/foaf/0.1/thumbnail> ?var2. ?var2 <http://purl.org/dc/elements/1.1/rights> ?var3. ?var2 <http://www.w3.org/1999/02/22-rdf-syntax-ns#type> <http://dbpedia.org/ontology/Image>. "
"(http://purl.org/dc/terms/subject ?)(http://www.w3.org/1999/02/22-rdf-syntax-ns#type http://www.w3.org/2004/02/skos/core#Concept) AND (http://www.w3.org/2004/02/skos/core#broader ?) AND (http://www.w3.org/2004/02/skos/core#prefLabel range http://www.w3.org/1999/02/22-rdf-syntax-ns#PlainLiteral) AND (http://www.w3.org/2000/01/rdf-schema#label range http://www.w3.org/1999/02/22-rdf-syntax-ns#PlainLiteral)";"0";"NaN";"0,995595";"?x <http://purl.org/dc/terms/subject> ?var1. ?var1 <http://www.w3.org/1999/02/22-rdf-syntax-ns#type> <http://www.w3.org/2004/02/skos/core#Concept>. ?var1 <http://www.w3.org/2004/02/skos/core#broader> ?var2. ?var1 <http://www.w3.org/2004/02/skos/core#prefLabel> ?var3. filter(datatype(?var3)=<http://www.w3.org/1999/02/22-rdf-syntax-ns#PlainLiteral>) ?var1 <http://www.w3.org/2000/01/rdf-schema#label> ?var4. filter(datatype(?var4)=<http://www.w3.org/1999/02/22-rdf-syntax-ns#PlainLiteral>) "
"(http://purl.org/dc/terms/subject ?)(http://www.w3.org/2004/02/skos/core#broader ?)(http://www.w3.org/1999/02/22-rdf-syntax-ns#type http://www.w3.org/2004/02/skos/core#Concept) AND (http://www.w3.org/2004/02/skos/core#prefLabel range http://www.w3.org/1999/02/22-rdf-syntax-ns#PlainLiteral) AND (http://www.w3.org/2000/01/rdf-schema#label range http://www.w3.org/1999/02/22-rdf-syntax-ns#PlainLiteral)";"0";"NaN";"0,995595";"?x <http://purl.org/dc/terms/subject> ?var1. ?var1 <http://www.w3.org/2004/02/skos/core#broader> ?var2. ?var2 <http://www.w3.org/1999/02/22-rdf-syntax-ns#type> <http://www.w3.org/2004/02/skos/core#Concept>. ?var2 <http://www.w3.org/2004/02/skos/core#prefLabel> ?var3. filter(datatype(?var3)=<http://www.w3.org/1999/02/22-rdf-syntax-ns#PlainLiteral>) ?var2 <http://www.w3.org/2000/01/rdf-schema#label> ?var4. filter(datatype(?var4)=<http://www.w3.org/1999/02/22-rdf-syntax-ns#PlainLiteral>) "
"(http://xmlns.com/foaf/0.1/isPrimaryTopicOf ?)(http://purl.org/dc/elements/1.1/language "en"^^<http://www.w3.org/2001/XMLSchema#string>) AND (http://purl.org/dc/elements/1.1/language range http://www.w3.org/2001/XMLSchema#string) AND (http://www.w3.org/1999/02/22-rdf-syntax-ns#type http://xmlns.com/foaf/0.1/Document)";"0";"NaN";"0,997797";"?x <http://xmlns.com/foaf/0.1/isPrimaryTopicOf> ?var1. ?var1 <http://purl.org/dc/elements/1.1/language> "en"^^<http://www.w3.org/2001/XMLSchema#string>. ?var1 <http://purl.org/dc/elements/1.1/language> ?var2. filter(datatype(?var2)=<http://www.w3.org/2001/XMLSchema#string>) ?var1 <http://www.w3.org/1999/02/22-rdf-syntax-ns#type> <http://xmlns.com/foaf/0.1/Document>. "
"(http://dbpedia.org/ontology/thumbnail ?)(http://purl.org/dc/elements/1.1/rights ?) AND (http://www.w3.org/1999/02/22-rdf-syntax-ns#type http://dbpedia.org/ontology/Image)";"0";"NaN";"0,713656";"?x <http://dbpedia.org/ontology/thumbnail> ?var1. ?var1 <http://purl.org/dc/elements/1.1/rights> ?var2. ?var1 <http://www.w3.org/1999/02/22-rdf-syntax-ns#type> <http://dbpedia.org/ontology/Image>. "
